Segmentation Models: using `keras` framework.
l_shang: [
    168,
    175,
    175,
    175,
    165, 
    192, 
    175, 
    159, 
    159, 
    175, 
    177, 
    191, 
    175, 
    185, 
    195, 
    197, 
    187, 
    191, 
    177, 
    160, 
    199, 
    174, 
    181, 
    169, 
    200, 
    167, 
    202, 
    183, 
    179, 
    173, 
    189]


l_xia: [
    1344, 
    1349, 
    1349, 
    1348, 
    1348, 
    1345, 
    1343, 
    1347, 
    1346, 
    1348, 
    1346, 
    1346, 
    1348, 
    1346, 
    1347, 
    1345, 
    1348, 
    1346, 
    1346, 
    1347, 
    1348, 
    1343, 
    1346, 
    1347, 
    1349, 
    1349, 
    1347, 
    1349, 
    1345, 
    1345, 
    1347]
